{
	"groups": [
		{
			"keys": "checkbox_select_disabled_png,checkbox_select_down_png,checkbox_select_up_png,checkbox_unselect_png,handle_png,off_png,on_png,button_down_png,button_up_png,description_json,gameEui_json,1X1_png,jinbi_0_png,jinbi_1_png,jinbi_3_png,jinbi_2_png,1x1_1_png,1x1_2_png,1x1_3_png,1x1_4_png,BaseRect_png,lvpiao_0_png,lvpiao_1_png,lvpiao_2_png,lvpiao_3_png,big_coin_mp3,car_mp3,green_bux_mp3,small_coin_mp3,Tile_1x1_png,Tile_2x2_png,Tile_4x4_png,bg_wave_png,coin_bg2_png, (1)_png, (4)_png, (5)_png, (6)_png, (7)_png, (8)_png, (9)_png, (10)_png, (11)_png,coin_bg_png,renkou_png,jinbi_png,coin_bg1_png,lvpiao_png,(12)_png,red_point_png,fish_png,jinbi_02_png,jinbi_12_png,jinbi_22_png,jinbi_32_png,lvpiao_02_png,lvpiao_12_png,lvpiao_22_png,lvpiao_32_png,20X20_png,congratulations_mp3,start_upgrade_mp3,revert_mp3,人口_png,加速_png,加速0_png,市政厅0_png,市政厅1_png,市政厅2_png,市政厅4_png,市政厅5_png,市政厅6_png,市政厅7_png,市政厅8_png,弹框标题-蓝_png,推荐_png,游戏页面 (1)_png,游戏页面 (2)_png,游戏页面 (3)_png,游戏页面 (4)_png,游戏页面 (5)_png,游戏页面 (6)_png,游戏页面 (7)_png,游戏页面 (8)_png,游戏页面 (9)_png,窗口 (1)_png,窗口 (2)_png,窗口 (3)_png,窗口 (5)_png,继续_png,绿票_png,购买地块 (1)_png,购买地块 (2)_png,购买地块 (3)_png,购买地块 (4)_png,购买汽车 (1)_png,购买汽车 (2)_png,购买汽车 (3)_png,购买汽车 (4)_png,购买汽车 (5)_png,购买汽车 (6)_png,购买汽车 (7)_png,购买汽车 (8)_png,选择键1_png,选择键2_png,金币_png,金币框_png,银行1_png,银行2_png,弹框2_png",
			"name": "preload"
		}
	],
	"resources": [
		{
			"url": "assets/CheckBox/checkbox_select_disabled.png",
			"type": "image",
			"name": "checkbox_select_disabled_png"
		},
		{
			"url": "assets/CheckBox/checkbox_select_down.png",
			"type": "image",
			"name": "checkbox_select_down_png"
		},
		{
			"url": "assets/CheckBox/checkbox_select_up.png",
			"type": "image",
			"name": "checkbox_select_up_png"
		},
		{
			"url": "assets/CheckBox/checkbox_unselect.png",
			"type": "image",
			"name": "checkbox_unselect_png"
		},
		{
			"url": "assets/ToggleSwitch/handle.png",
			"type": "image",
			"name": "handle_png"
		},
		{
			"url": "assets/ToggleSwitch/off.png",
			"type": "image",
			"name": "off_png"
		},
		{
			"url": "assets/ToggleSwitch/on.png",
			"type": "image",
			"name": "on_png"
		},
		{
			"url": "assets/Button/button_down.png",
			"type": "image",
			"name": "button_down_png"
		},
		{
			"url": "assets/Button/button_up.png",
			"type": "image",
			"name": "button_up_png"
		},
		{
			"name": "description_json",
			"type": "json",
			"url": "config/description.json"
		},
		{
			"name": "gameEui_json",
			"type": "json",
			"url": "gameEui.json"
		},
		{
			"name": "1X1_png",
			"type": "image",
			"url": "assets/Spr/1X1.png"
		},
		{
			"name": "jinbi_0_png",
			"type": "image",
			"url": "assets/Spr/JinBi/XiaoJinBi/jinbi_0.png"
		},
		{
			"name": "jinbi_1_png",
			"type": "image",
			"url": "assets/Spr/JinBi/XiaoJinBi/jinbi_1.png"
		},
		{
			"name": "jinbi_3_png",
			"type": "image",
			"url": "assets/Spr/JinBi/XiaoJinBi/jinbi_3.png"
		},
		{
			"name": "jinbi_2_png",
			"type": "image",
			"url": "assets/Spr/JinBi/XiaoJinBi/jinbi_2.png"
		},
		{
			"name": "1x1_1_png",
			"type": "image",
			"url": "assets/Spr/1x1/1x1_1.png"
		},
		{
			"name": "1x1_2_png",
			"type": "image",
			"url": "assets/Spr/1x1/1x1_2.png"
		},
		{
			"name": "1x1_3_png",
			"type": "image",
			"url": "assets/Spr/1x1/1x1_3.png"
		},
		{
			"name": "1x1_4_png",
			"type": "image",
			"url": "assets/Spr/1x1/1x1_4.png"
		},
		{
			"name": "BaseRect_png",
			"type": "image",
			"url": "assets/Spr/BaseRect.png"
		},
		{
			"name": "lvpiao_0_png",
			"type": "image",
			"url": "assets/Spr/JinBi/XiaoLvPiao/lvpiao_0.png"
		},
		{
			"name": "lvpiao_1_png",
			"type": "image",
			"url": "assets/Spr/JinBi/XiaoLvPiao/lvpiao_1.png"
		},
		{
			"name": "lvpiao_2_png",
			"type": "image",
			"url": "assets/Spr/JinBi/XiaoLvPiao/lvpiao_2.png"
		},
		{
			"name": "lvpiao_3_png",
			"type": "image",
			"url": "assets/Spr/JinBi/XiaoLvPiao/lvpiao_3.png"
		},
		{
			"name": "big_coin_mp3",
			"type": "sound",
			"url": "assets/Audios/big_coin.mp3"
		},
		{
			"name": "car_mp3",
			"type": "sound",
			"url": "assets/Audios/car.mp3"
		},
		{
			"name": "green_bux_mp3",
			"type": "sound",
			"url": "assets/Audios/green_bux.mp3"
		},
		{
			"name": "small_coin_mp3",
			"type": "sound",
			"url": "assets/Audios/small_coin.mp3"
		},
		{
			"name": "Tile_1x1_png",
			"type": "image",
			"url": "assets/Spr/NewVersion12.1/Tile_1x1.png"
		},
		{
			"name": "Tile_2x2_png",
			"type": "image",
			"url": "assets/Spr/NewVersion12.1/Tile_2x2.png"
		},
		{
			"name": "Tile_4x4_png",
			"type": "image",
			"url": "assets/Spr/NewVersion12.1/Tile_4x4.png"
		},
		{
			"name": "bg_wave_png",
			"type": "image",
			"url": "assets/Spr/NewVersion12.1/bg_wave.png"
		},
		{
			"name": "coin_bg2_png",
			"type": "image",
			"url": "assets/Spr/NewVersion12.1/coin_bg.png"
		},
		{
			"name": " (1)_png",
			"type": "image",
			"url": "assets/Spr/NewVersion12.1/UI/ (1).png"
		},
		{
			"name": " (4)_png",
			"type": "image",
			"url": "assets/Spr/NewVersion12.1/UI/ (4).png"
		},
		{
			"name": " (5)_png",
			"type": "image",
			"url": "assets/Spr/NewVersion12.1/UI/ (5).png"
		},
		{
			"name": " (6)_png",
			"type": "image",
			"url": "assets/Spr/NewVersion12.1/UI/ (6).png"
		},
		{
			"name": " (7)_png",
			"type": "image",
			"url": "assets/Spr/NewVersion12.1/UI/ (7).png"
		},
		{
			"name": " (8)_png",
			"type": "image",
			"url": "assets/Spr/NewVersion12.1/UI/ (8).png"
		},
		{
			"name": " (9)_png",
			"type": "image",
			"url": "assets/Spr/NewVersion12.1/UI/ (9).png"
		},
		{
			"name": " (10)_png",
			"type": "image",
			"url": "assets/Spr/NewVersion12.1/UI/ (10).png"
		},
		{
			"name": " (11)_png",
			"type": "image",
			"url": "assets/Spr/NewVersion12.1/UI/ (11).png"
		},
		{
			"name": "coin_bg_png",
			"type": "image",
			"url": "assets/Spr/NewVersion12.1/UI/coin_bg.png"
		},
		{
			"name": "renkou_png",
			"type": "image",
			"url": "assets/Spr/NewVersion12.1/UI/renkou.png"
		},
		{
			"name": "jinbi_png",
			"type": "image",
			"url": "assets/Spr/NewVersion12.1/UI/jinbi.png"
		},
		{
			"name": "coin_bg1_png",
			"type": "image",
			"url": "assets/Spr/NewVersion12.1/UI/coin_bg1.png"
		},
		{
			"name": "lvpiao_png",
			"type": "image",
			"url": "assets/Spr/NewVersion12.1/UI/lvpiao.png"
		},
		{
			"name": "(12)_png",
			"type": "image",
			"url": "assets/Spr/NewVersion12.1/UI/(12).png"
		},
		{
			"name": "red_point_png",
			"type": "image",
			"url": "assets/Spr/NewVersion12.1/UI/red_point.png"
		},
		{
			"name": "fish_png",
			"type": "image",
			"url": "assets/Spr/TownsRes/3/fish.png"
		},
		{
			"name": "jinbi_02_png",
			"type": "image",
			"url": "assets/Spr/JinBi/XiaoJinBi/jinbi_0.png"
		},
		{
			"name": "jinbi_12_png",
			"type": "image",
			"url": "assets/Spr/JinBi/XiaoJinBi/jinbi_1.png"
		},
		{
			"name": "jinbi_22_png",
			"type": "image",
			"url": "assets/Spr/JinBi/XiaoJinBi/jinbi_2.png"
		},
		{
			"name": "jinbi_32_png",
			"type": "image",
			"url": "assets/Spr/JinBi/XiaoJinBi/jinbi_3.png"
		},
		{
			"name": "lvpiao_02_png",
			"type": "image",
			"url": "assets/Spr/JinBi/XiaoLvPiao/lvpiao_0.png"
		},
		{
			"name": "lvpiao_12_png",
			"type": "image",
			"url": "assets/Spr/JinBi/XiaoLvPiao/lvpiao_1.png"
		},
		{
			"name": "lvpiao_22_png",
			"type": "image",
			"url": "assets/Spr/JinBi/XiaoLvPiao/lvpiao_2.png"
		},
		{
			"name": "lvpiao_32_png",
			"type": "image",
			"url": "assets/Spr/JinBi/XiaoLvPiao/lvpiao_3.png"
		},
		{
			"name": "20X20_png",
			"type": "image",
			"url": "assets/Spr/1x1/20X20.png"
		},
		{
			"name": "congratulations_mp3",
			"type": "sound",
			"url": "assets/Audios/congratulations.mp3"
		},
		{
			"name": "start_upgrade_mp3",
			"type": "sound",
			"url": "assets/Audios/start_upgrade.mp3"
		},
		{
			"name": "revert_mp3",
			"type": "sound",
			"url": "assets/Audios/revert.mp3"
		},
		{
			"name": "人口_png",
			"type": "image",
			"url": "assets/Spr/NewVersion12.13/人口.png"
		},
		{
			"name": "加速_png",
			"type": "image",
			"url": "assets/Spr/NewVersion12.13/加速.png"
		},
		{
			"name": "加速0_png",
			"type": "image",
			"url": "assets/Spr/NewVersion12.13/加速0.png"
		},
		{
			"name": "市政厅0_png",
			"type": "image",
			"url": "assets/Spr/NewVersion12.13/市政厅0.png"
		},
		{
			"name": "市政厅1_png",
			"type": "image",
			"url": "assets/Spr/NewVersion12.13/市政厅1.png"
		},
		{
			"name": "市政厅2_png",
			"type": "image",
			"url": "assets/Spr/NewVersion12.13/市政厅2.png"
		},
		{
			"name": "市政厅4_png",
			"type": "image",
			"url": "assets/Spr/NewVersion12.13/市政厅4.png"
		},
		{
			"name": "市政厅5_png",
			"type": "image",
			"url": "assets/Spr/NewVersion12.13/市政厅5.png"
		},
		{
			"name": "市政厅6_png",
			"type": "image",
			"url": "assets/Spr/NewVersion12.13/市政厅6.png"
		},
		{
			"name": "市政厅7_png",
			"type": "image",
			"url": "assets/Spr/NewVersion12.13/市政厅7.png"
		},
		{
			"name": "市政厅8_png",
			"type": "image",
			"url": "assets/Spr/NewVersion12.13/市政厅8.png"
		},
		{
			"name": "弹框标题-蓝_png",
			"type": "image",
			"url": "assets/Spr/NewVersion12.13/弹框标题-蓝.png"
		},
		{
			"name": "推荐_png",
			"type": "image",
			"url": "assets/Spr/NewVersion12.13/推荐.png"
		},
		{
			"name": "游戏页面 (1)_png",
			"type": "image",
			"url": "assets/Spr/NewVersion12.13/游戏页面 (1).png"
		},
		{
			"name": "游戏页面 (2)_png",
			"type": "image",
			"url": "assets/Spr/NewVersion12.13/游戏页面 (2).png"
		},
		{
			"name": "游戏页面 (3)_png",
			"type": "image",
			"url": "assets/Spr/NewVersion12.13/游戏页面 (3).png"
		},
		{
			"name": "游戏页面 (4)_png",
			"type": "image",
			"url": "assets/Spr/NewVersion12.13/游戏页面 (4).png"
		},
		{
			"name": "游戏页面 (5)_png",
			"type": "image",
			"url": "assets/Spr/NewVersion12.13/游戏页面 (5).png"
		},
		{
			"name": "游戏页面 (6)_png",
			"type": "image",
			"url": "assets/Spr/NewVersion12.13/游戏页面 (6).png"
		},
		{
			"name": "游戏页面 (7)_png",
			"type": "image",
			"url": "assets/Spr/NewVersion12.13/游戏页面 (7).png"
		},
		{
			"name": "游戏页面 (8)_png",
			"type": "image",
			"url": "assets/Spr/NewVersion12.13/游戏页面 (8).png"
		},
		{
			"name": "游戏页面 (9)_png",
			"type": "image",
			"url": "assets/Spr/NewVersion12.13/游戏页面 (9).png"
		},
		{
			"name": "窗口 (1)_png",
			"type": "image",
			"url": "assets/Spr/NewVersion12.13/窗口 (1).png"
		},
		{
			"name": "窗口 (2)_png",
			"type": "image",
			"url": "assets/Spr/NewVersion12.13/窗口 (2).png"
		},
		{
			"name": "窗口 (3)_png",
			"type": "image",
			"url": "assets/Spr/NewVersion12.13/窗口 (3).png"
		},
		{
			"name": "窗口 (5)_png",
			"type": "image",
			"url": "assets/Spr/NewVersion12.13/窗口 (5).png"
		},
		{
			"name": "继续_png",
			"type": "image",
			"url": "assets/Spr/NewVersion12.13/继续.png"
		},
		{
			"name": "绿票_png",
			"type": "image",
			"url": "assets/Spr/NewVersion12.13/绿票.png"
		},
		{
			"name": "购买地块 (1)_png",
			"type": "image",
			"url": "assets/Spr/NewVersion12.13/购买地块 (1).png"
		},
		{
			"name": "购买地块 (2)_png",
			"type": "image",
			"url": "assets/Spr/NewVersion12.13/购买地块 (2).png"
		},
		{
			"name": "购买地块 (3)_png",
			"type": "image",
			"url": "assets/Spr/NewVersion12.13/购买地块 (3).png"
		},
		{
			"name": "购买地块 (4)_png",
			"type": "image",
			"url": "assets/Spr/NewVersion12.13/购买地块 (4).png"
		},
		{
			"name": "购买汽车 (1)_png",
			"type": "image",
			"url": "assets/Spr/NewVersion12.13/购买汽车 (1).png"
		},
		{
			"name": "购买汽车 (2)_png",
			"type": "image",
			"url": "assets/Spr/NewVersion12.13/购买汽车 (2).png"
		},
		{
			"name": "购买汽车 (3)_png",
			"type": "image",
			"url": "assets/Spr/NewVersion12.13/购买汽车 (3).png"
		},
		{
			"name": "购买汽车 (4)_png",
			"type": "image",
			"url": "assets/Spr/NewVersion12.13/购买汽车 (4).png"
		},
		{
			"name": "购买汽车 (5)_png",
			"type": "image",
			"url": "assets/Spr/NewVersion12.13/购买汽车 (5).png"
		},
		{
			"name": "购买汽车 (6)_png",
			"type": "image",
			"url": "assets/Spr/NewVersion12.13/购买汽车 (6).png"
		},
		{
			"name": "购买汽车 (7)_png",
			"type": "image",
			"url": "assets/Spr/NewVersion12.13/购买汽车 (7).png"
		},
		{
			"name": "购买汽车 (8)_png",
			"type": "image",
			"url": "assets/Spr/NewVersion12.13/购买汽车 (8).png"
		},
		{
			"name": "选择键1_png",
			"type": "image",
			"url": "assets/Spr/NewVersion12.13/选择键1.png"
		},
		{
			"name": "选择键2_png",
			"type": "image",
			"url": "assets/Spr/NewVersion12.13/选择键2.png"
		},
		{
			"name": "金币_png",
			"type": "image",
			"url": "assets/Spr/NewVersion12.13/金币.png"
		},
		{
			"name": "金币框_png",
			"type": "image",
			"url": "assets/Spr/NewVersion12.13/金币框.png"
		},
		{
			"name": "银行1_png",
			"type": "image",
			"url": "assets/Spr/NewVersion12.13/银行1.png"
		},
		{
			"name": "银行2_png",
			"type": "image",
			"url": "assets/Spr/NewVersion12.13/银行2.png"
		},
		{
			"name": "弹框2_png",
			"type": "image",
			"url": "assets/Spr/NewVersion12.13/弹框2.png"
		}
	]
}